mips_cpu/pm.vcd
$date
	Sun Nov  8 21:23:57 2015
$end
$version
	Icarus Verilog
$end
$timescale
	1s
$end
$scope module test $end
$var wire 32 ! PC [31:0] $end
$var reg 1 " clk $end
$var reg 1 # done $end
$var integer 32 $ i [31:0] $end
$var reg 1 % reset $end
$scope module pm $end
$var wire 3 & ALUOp [2:0] $end
$var wire 1 ' ALUSrc $end
$var wire 1 ( BEQ $end
$var wire 32 ) B_data [31:0] $end
$var wire 1 * MemRead $end
$var wire 1 + MemRead_MW $end
$var wire 1 , MemToReg $end
$var wire 1 - MemToReg_MW $end
$var wire 1 . MemWrite $end
$var wire 1 / MemWrite_MW $end
$var wire 32 0 PC [31:0] $end
$var wire 1 1 PCSrc $end
$var wire 30 2 PC_plus4 [31:2] $end
$var wire 30 3 PC_target [31:2] $end
$var wire 1 4 RegDst $end
$var wire 1 5 RegWrite $end
$var wire 1 6 RegWrite_MW $end
$var wire 32 7 alu_out_data [31:0] $end
$var wire 32 8 alu_out_data_mw [31:0] $end
$var wire 1 9 clk $end
$var wire 1 : flush $end
$var wire 6 ; funct [5:0] $end
$var wire 32 < imm [31:0] $end
$var wire 32 = inst [31:0] $end
$var wire 32 > inst_if [31:0] $end
$var wire 32 ? load_data [31:0] $end
$var wire 30 @ next_PC [31:2] $end
$var wire 6 A opcode [5:0] $end
$var wire 30 B pc_de [31:2] $end
$var wire 5 C rd [4:0] $end
$var wire 32 D rd1_data [31:0] $end
$var wire 32 E rd1_data_fwd [31:0] $end
$var wire 32 F rd2_data [31:0] $end
$var wire 32 G rd2_data_fwd [31:0] $end
$var wire 32 H rd2_data_mw [31:0] $end
$var wire 1 I reset $end
$var wire 5 J rs [4:0] $end
$var wire 5 K rt [4:0] $end
$var wire 1 L stall $end
$var wire 32 M wr_data [31:0] $end
$var wire 5 N wr_regnum [4:0] $end
$var wire 5 O wr_regnum_MW [4:0] $end
$var wire 1 P zero $end
$scope module PC_reg $end
$var wire 1 9 clk $end
$var wire 30 Q d [29:0] $end
$var wire 1 R enable $end
$var wire 1 I reset $end
$var reg 30 S q [29:0] $end
$upscope $end
$scope module next_PC_adder $end
$var wire 30 T in1 [29:0] $end
$var wire 30 U in2 [29:0] $end
$var wire 30 V out [29:0] $end
$upscope $end
$scope module target_PC_adder $end
$var wire 30 W in1 [29:0] $end
$var wire 30 X in2 [29:0] $end
$var wire 30 Y out [29:0] $end
$upscope $end
$scope module branch_mux $end
$var wire 30 Z A [29:0] $end
$var wire 30 [ B [29:0] $end
$var wire 30 \ out [29:0] $end
$var wire 1 1 sel $end
$var wire 30 ] temp1 [29:0] $end
$var wire 30 ^ temp2 [29:0] $end
$upscope $end
$scope module imem $end
$var wire 30 _ addr [29:0] $end
$var wire 32 ` data [31:0] $end
$var reg 32 a i [31:0] $end
$upscope $end
$scope module ifde_inst $end
$var wire 1 9 clk $end
$var wire 32 b d [31:0] $end
$var wire 1 c enable $end
$var wire 1 : reset $end
$var reg 32 d q [31:0] $end
$upscope $end
$scope module ifde_PC $end
$var wire 1 9 clk $end
$var wire 30 e d [29:0] $end
$var wire 1 f enable $end
$var wire 1 : reset $end
$var reg 30 g q [29:0] $end
$upscope $end
$scope module dwmw_alu_out_data $end
$var wire 1 9 clk $end
$var wire 32 h d [31:0] $end
$var wire 1 i enable $end
$var wire 1 I reset $end
$var reg 32 j q [31:0] $end
$upscope $end
$scope module decode $end
$var wire 3 k ALUOp [2:0] $end
$var wire 1 ' ALUSrc $end
$var wire 1 ( BEQ $end
$var wire 1 * MemRead $end
$var wire 1 , MemToReg $end
$var wire 1 . MemWrite $end
$var wire 1 4 RegDst $end
$var wire 1 5 RegWrite $end
$var wire 6 l funct [5:0] $end
$var wire 1 m nop $end
$var wire 1 n op0 $end
$var wire 6 o opcode [5:0] $end
$upscope $end
$scope module control_demw $end
$var wire 1 9 clk $end
$var wire 4 p d [3:0] $end
$var wire 1 q enable $end
$var wire 1 r reset $end
$var reg 4 s q [3:0] $end
$upscope $end
$scope module wr_regnum_demw $end
$var wire 1 9 clk $end
$var wire 5 t d [4:0] $end
$var wire 1 u enable $end
$var wire 1 v reset $end
$var reg 5 w q [4:0] $end
$upscope $end
$scope module r2_data_demw $end
$var wire 1 9 clk $end
$var wire 32 x d [31:0] $end
$var wire 1 y enable $end
$var wire 1 z reset $end
$var reg 32 { q [31:0] $end
$upscope $end
$scope module rf $end
$var wire 1 9 clock $end
$var wire 32 | internal_rdData [31:0] $end
$var wire 32 } rdData [31:0] $end
$var wire 5 ~ rdNum [4:0] $end
$var wire 1 6 rdWriteEnable $end
$var wire 1 I reset $end
$var wire 32 !" rsData [31:0] $end
$var wire 5 "" rsNum [4:0] $end
$var wire 32 #" rtData [31:0] $end
$var wire 5 $" rtNum [4:0] $end
$var integer 32 %" i [31:0] $end
$upscope $end
$scope module imm_mux $end
$var wire 32 &" A [31:0] $end
$var wire 32 '" B [31:0] $end
$var wire 32 (" out [31:0] $end
$var wire 1 ' sel $end
$var wire 32 )" temp1 [31:0] $end
$var wire 32 *" temp2 [31:0] $end
$upscope $end
$scope module alu $end
$var wire 3 +" control [2:0] $end
$var wire 32 ," inA [31:0] $end
$var wire 32 -" inB [31:0] $end
$var wire 32 ." out [31:0] $end
$var wire 1 P zero $end
$upscope $end
$scope module ForwardA $end
$var wire 32 /" A [31:0] $end
$var wire 32 0" B [31:0] $end
$var wire 32 1" out [31:0] $end
$var wire 1 2" sel $end
$var wire 32 3" temp1 [31:0] $end
$var wire 32 4" temp2 [31:0] $end
$upscope $end
$scope module ForwardB $end
$var wire 32 5" A [31:0] $end
$var wire 32 6" B [31:0] $end
$var wire 32 7" out [31:0] $end
$var wire 1 8" sel $end
$var wire 32 9" temp1 [31:0] $end
$var wire 32 :" temp2 [31:0] $end
$upscope $end
$scope module data_memory $end
$var wire 32 ;" addr [31:0] $end
$var wire 1 9 clk $end
$var wire 32 <" d_out [31:0] $end
$var wire 32 =" data_in [31:0] $end
$var wire 32 >" data_out [31:0] $end
$var wire 19 ?" index [18:0] $end
$var wire 32 @" internal_data_in [31:0] $end
$var wire 1 + mem_read $end
$var wire 1 / mem_write $end
$var wire 1 I reset $end
$var wire 1 A" valid_address $end
$var integer 32 B" i [31:0] $end
$upscope $end
$scope module wb_mux $end
$var wire 32 C" A [31:0] $end
$var wire 32 D" B [31:0] $end
$var wire 32 E" out [31:0] $end
$var wire 1 - sel $end
$var wire 32 F" temp1 [31:0] $end
$var wire 32 G" temp2 [31:0] $end
$upscope $end
$scope module rd_mux $end
$var wire 5 H" A [4:0] $end
$var wire 5 I" B [4:0] $end
$var wire 5 J" out [4:0] $end
$var wire 1 4 sel $end
$var wire 5 K" temp1 [4:0] $end
$var wire 5 L" temp2 [4:0] $end
$upscope $end
$upscope $end
$upscope $end
$scope module test $end
$scope module pm $end
$scope module rf $end
$var reg 32 M" \r[0] [31:0] $end
$upscope $end
$upscope $end
$upscope $end
$scope module test $end
$scope module pm $end
$scope module rf $end
$var reg 32 N" \r[1] [31:0] $end
$upscope $end
$upscope $end
$upscope $end
$scope module test $end
$scope module pm $end
$scope module rf $end
$var reg 32 O" \r[2] [31:0] $end
$upscope $end
$upscope $end
$upscope $end
$scope module test $end
$scope module pm $end
$scope module rf $end
$var reg 32 P" \r[3] [31:0] $end
$upscope $end
$upscope $end
$upscope $end
$scope module test $end
$scope module pm $end
$scope module rf $end
$var reg 32 Q" \r[4] [31:0] $end
$upscope $end
$upscope $end
$upscope $end
$scope module test $end
$scope module pm $end
$scope module rf $end
$var reg 32 R" \r[5] [31:0] $end
$upscope $end
$upscope $end
$upscope $end
$scope module test $end
$scope module pm $end
$scope module rf $end
$var reg 32 S" \r[6] [31:0] $end
$upscope $end
$upscope $end
$upscope $end
$scope module test $end
$scope module pm $end
$scope module rf $end
$var reg 32 T" \r[7] [31:0] $end
$upscope $end
$upscope $end
$upscope $end
$scope module test $end
$scope module pm $end
$scope module rf $end
$var reg 32 U" \r[8] [31:0] $end
$upscope $end
$upscope $end
$upscope $end
$scope module test $end
$scope module pm $end
$scope module rf $end
$var reg 32 V" \r[9] [31:0] $end
$upscope $end
$upscope $end
$upscope $end
$scope module test $end
$scope module pm $end
$scope module rf $end
$var reg 32 W" \r[10] [31:0] $end
$upscope $end
$upscope $end
$upscope $end
$scope module test $end
$scope module pm $end
$scope module rf $end
$var reg 32 X" \r[11] [31:0] $end
$upscope $end
$upscope $end
$upscope $end
$scope module test $end
$scope module pm $end
$scope module rf $end
$var reg 32 Y" \r[12] [31:0] $end
$upscope $end
$upscope $end
$upscope $end
$scope module test $end
$scope module pm $end
$scope module rf $end
$var reg 32 Z" \r[13] [31:0] $end
$upscope $end
$upscope $end
$upscope $end
$scope module test $end
$scope module pm $end
$scope module rf $end
$var reg 32 [" \r[14] [31:0] $end
$upscope $end
$upscope $end
$upscope $end
$scope module test $end
$scope module pm $end
$scope module rf $end
$var reg 32 \" \r[15] [31:0] $end
$upscope $end
$upscope $end
$upscope $end
$scope module test $end
$scope module pm $end
$scope module rf $end
$var reg 32 ]" \r[16] [31:0] $end
$upscope $end
$upscope $end
$upscope $end
$scope module test $end
$scope module pm $end
$scope module rf $end
$var reg 32 ^" \r[17] [31:0] $end
$upscope $end
$upscope $end
$upscope $end
$scope module test $end
$scope module pm $end
$scope module rf $end
$var reg 32 _" \r[18] [31:0] $end
$upscope $end
$upscope $end
$upscope $end
$scope module test $end
$scope module pm $end
$scope module rf $end
$var reg 32 `" \r[19] [31:0] $end
$upscope $end
$upscope $end
$upscope $end
$scope module test $end
$scope module pm $end
$scope module rf $end
$var reg 32 a" \r[20] [31:0] $end
$upscope $end
$upscope $end
$upscope $end
$scope module test $end
$scope module pm $end
$scope module rf $end
$var reg 32 b" \r[21] [31:0] $end
$upscope $end
$upscope $end
$upscope $end
$scope module test $end
$scope module pm $end
$scope module rf $end
$var reg 32 c" \r[22] [31:0] $end
$upscope $end
$upscope $end
$upscope $end
$scope module test $end
$scope module pm $end
$scope module rf $end
$var reg 32 d" \r[23] [31:0] $end
$upscope $end
$upscope $end
$upscope $end
$scope module test $end
$scope module pm $end
$scope module rf $end
$var reg 32 e" \r[24] [31:0] $end
$upscope $end
$upscope $end
$upscope $end
$scope module test $end
$scope module pm $end
$scope module rf $end
$var reg 32 f" \r[25] [31:0] $end
$upscope $end
$upscope $end
$upscope $end
$scope module test $end
$scope module pm $end
$scope module rf $end
$var reg 32 g" \r[26] [31:0] $end
$upscope $end
$upscope $end
$upscope $end
$scope module test $end
$scope module pm $end
$scope module rf $end
$var reg 32 h" \r[27] [31:0] $end
$upscope $end
$upscope $end
$upscope $end
$scope module test $end
$scope module pm $end
$scope module rf $end
$var reg 32 i" \r[28] [31:0] $end
$upscope $end
$upscope $end
$upscope $end
$scope module test $end
$scope module pm $end
$scope module rf $end
$var reg 32 j" \r[29] [31:0] $end
$upscope $end
$upscope $end
$upscope $end
$scope module test $end
$scope module pm $end
$scope module rf $end
$var reg 32 k" \r[30] [31:0] $end
$upscope $end
$upscope $end
$upscope $end
$scope module test $end
$scope module pm $end
$scope module rf $end
$var reg 32 l" \r[31] [31:0] $end
$upscope $end
$upscope $end
$upscope $end
$enddefinitions $end
#0
$dumpvars
b10000000000010000000000000000 l"
b10000000000010000000000000000 k"
b10000000000010000000000000000 j"
b10000000000010000000000000000 i"
b10000000000010000000000000000 h"
b10000000000010000000000000000 g"
b10000000000010000000000000000 f"
b10000000000010000000000000000 e"
b10000000000010000000000000000 d"
b10000000000010000000000000000 c"
b10000000000010000000000000000 b"
b10000000000010000000000000000 a"
b10000000000010000000000000000 `"
b10000000000010000000000000000 _"
b10000000000010000000000000000 ^"
b10000000000010000000000000000 ]"
b10000000000010000000000000000 \"
b10000000000010000000000000000 ["
b10000000000010000000000000000 Z"
b10000000000010000000000000000 Y"
b10000000000010000000000000000 X"
b10000000000010000000000000000 W"
b10000000000010000000000000000 V"
b10000000000010000000000000000 U"
b10000000000010000000000000000 T"
b10000000000010000000000000000 S"
b10000000000010000000000000000 R"
b10000000000010000000000000000 Q"
b10000000000010000000000000000 P"
b10000000000010000000000000000 O"
b10000000000010000000000000000 N"
b0 M"
bx L"
bx K"
bx J"
bx I"
bx H"
bx G"
bx F"
bx E"
bx D"
bx C"
b1000000000000000000 B"
xA"
bx @"
bx ?"
bx >"
bx ="
bx <"
bx ;"
bx :"
bx 9"
x8"
bx 7"
bx 6"
bx 5"
bx 4"
bx 3"
x2"
bx 1"
bx 0"
bx /"
bx ."
bx -"
bx ,"
bx +"
bx *"
bx )"
bx ("
bx '"
bx &"
b100000 %"
bx $"
bx #"
bx ""
bx !"
bx ~
bx }
bx |
bx {
1z
1y
bx x
bx w
1v
1u
bx t
bx s
1r
1q
bx p
bx o
xn
xm
bx l
bx k
bx j
1i
bx h
bx g
xf
bx e
bx d
xc
bx b
b100000000 a
bx `
bx _
bx ^
bx ]
bx \
bx [
bx Z
bx Y
bx X
bx W
bx V
b1 U
bx T
bx S
xR
bx Q
xP
bx O
bx N
bx M
xL
bx K
bx J
1I
bx H
bx G
bx F
bx E
bx D
bx C
bx B
bx A
bx @
bx ?
bx >
bx =
bx <
bx ;
1:
09
bx 8
bx 7
x6
x5
x4
bx 3
bx 2
x1
bx00 0
x/
x.
x-
x,
x+
x*
bx )
x(
x'
bx &
1%
b100000 $
0#
0"
bx00 !
$end
#2
b0 N
b0 t
b0 J"
b0 L"
b0 K"
b0 X
b0 *"
b11011110101011011011111011101111 <"
b0 ?"
b0 M
b0 }
b0 0"
b0 6"
b0 E"
b0 G"
0L
1R
1c
1f
b0 :"
b0 4"
b100000000000000000000 T
b100000000000000000000 _
b0 ;
b0 l
1n
b0 A
b0 o
b0 C
b0 I"
b0 K
b0 $"
b0 H"
b0 J
b0 ""
b0 <
b0 '"
0A"
b0 F"
0-
06
0/
0+
08"
02"
b100000000000000000000 S
b10000000000000000000000 0
b10000000000000000000000 !
b0 d
b0 =
b0 g
b0 B
b0 W
b0 j
b0 8
b0 ;"
b0 C"
b0 s
b0 w
b0 O
b0 ~
b0 {
b0 H
b0 ="
1"
19
#3
b0 )
b0 ("
b0 -"
b0 )"
b0 G
b0 x
b0 &"
b0 7"
b0 E
b0 ,"
b0 1"
b0 9"
b0 3"
b0 |
b0 F
b0 #"
b0 5"
b0 D
b0 !"
b0 /"
#4
05
b100000000000000000001 @
b100000000000000000001 Q
b100000000000000000001 \
b0 ^
b100000000000000000001 ]
01
14
0'
1P
b0 &
b0 k
b0 +"
1m
b0 3
b0 Y
b0 [
b100000000000000000001 2
b100000000000000000001 V
b100000000000000000001 Z
b100000000000000000001 e
0(
0,
0*
b0 p
0.
0"
09
#5
b0 7
b0 h
b0 ."
b10001110100000100000000000000000 >
b10001110100000100000000000000000 `
b10001110100000100000000000000000 b
b0 ?
b0 >"
b0 D"
b0 @"
#6
1"
19
#7
0:
0r
0v
0z
0%
0I
#8
0"
09
#10
b100000000000000000001 T
b100000000000000000001 _
0n
b100011 A
b100011 o
b10 K
b10 $"
b10 H"
b10100 J
b10100 ""
b100000000000000000001 S
b10000000000000000000100 0
b10000000000000000000100 !
b10001110100000100000000000000000 d
b10001110100000100000000000000000 =
b100000000000000000001 g
b100000000000000000001 B
b100000000000000000001 W
1"
19
#11
b10000000000010000000000000000 )
b10000000000010000000000000000 ("
b10000000000010000000000000000 -"
b10000000000010000000000000000 )"
b10000000000010000000000000000 G
b10000000000010000000000000000 x
b10000000000010000000000000000 &"
b10000000000010000000000000000 7"
b10000000000010000000000000000 E
b10000000000010000000000000000 ,"
b10000000000010000000000000000 1"
b10000000000010000000000000000 9"
b10000000000010000000000000000 3"
b10000000000010000000000000000 F
b10000000000010000000000000000 #"
b10000000000010000000000000000 5"
b10000000000010000000000000000 D
b10000000000010000000000000000 !"
b10000000000010000000000000000 /"
#12
b10 N
b10 t
b10 J"
b0 )
b0 ("
b0 -"
15
b100000000000000000010 @
b100000000000000000010 Q
b100000000000000000010 \
b10 K"
b0 )"
b100000000000000000010 ]
04
1'
0m
b100000000000000000010 2
b100000000000000000010 V
b100000000000000000010 Z
b100000000000000000010 e
1,
b1011 p
1*
b100000000000000000001 3
b100000000000000000001 Y
b100000000000000000001 [
0"
09
#13
0P
b10001110100000110000000000000100 >
b10001110100000110000000000000100 `
b10001110100000110000000000000100 b
#14
b11 N
b11 t
b11 J"
b100 )
b100 ("
b100 -"
b1 <"
b100000000000000 ?"
b0 M
b0 }
b0 0"
b0 6"
b0 E"
b11 K"
b100 X
b100 *"
1-
16
1+
1A"
b0 F"
b100 ;
b100 l
b11 K
b11 $"
b11 H"
b100 <
b100 '"
b100000000000000000010 T
b100000000000000000010 _
b10000000000010000000000000000 {
b10000000000010000000000000000 H
b10000000000010000000000000000 ="
b10 w
b10 O
b10 ~
b1011 s
b10000000000010000000000000000 j
b10000000000010000000000000000 8
b10000000000010000000000000000 ;"
b10000000000010000000000000000 C"
b100000000000000000010 g
b100000000000000000010 B
b100000000000000000010 W
b10001110100000110000000000000100 d
b10001110100000110000000000000100 =
b100000000000000000010 S
b10000000000000000001000 0
b10000000000000000001000 !
b10000000000010000000000000000 7
b10000000000010000000000000000 h
b10000000000010000000000000000 ."
1"
19
#16
b100000000000000000011 @
b100000000000000000011 Q
b100000000000000000011 \
b100000000000000000011 ]
b10000000000010000000000000100 7
b10000000000010000000000000100 h
b10000000000010000000000000100 ."
b100000000000000000011 2
b100000000000000000011 V
b100000000000000000011 Z
b100000000000000000011 e
b100000000000000000110 3
b100000000000000000110 Y
b100000000000000000110 [
0"
09
#17
b1 M
b1 }
b1 0"
b1 6"
b1 E"
b1 G"
b1 ?
b1 >"
b1 D"
b10001110100001000000000000001000 >
b10001110100001000000000000001000 `
b10001110100001000000000000001000 b
b10000000000010000000000000000 @"
#18
b10000000000010000000000000000 G
b10000000000010000000000000000 x
b10000000000010000000000000000 &"
b10000000000010000000000000000 7"
b100 N
b100 t
b100 J"
b1000 )
b1000 ("
b1000 -"
b10000000000010000000000000000 9"
b0 :"
b100 K"
b1000 X
b1000 *"
b11111111 <"
b100000000000001 ?"
08"
b100000000000000000011 T
b100000000000000000011 _
b1000 ;
b1000 l
b100 K
b100 $"
b100 H"
b1000 <
b1000 '"
b100000000000000000011 S
b10000000000000000001100 0
b10000000000000000001100 !
b10001110100001000000000000001000 d
b10001110100001000000000000001000 =
b100000000000000000011 g
b100000000000000000011 B
b100000000000000000011 W
b10000000000010000000000000100 j
b10000000000010000000000000100 8
b10000000000010000000000000100 ;"
b10000000000010000000000000100 C"
b11 w
b11 O
b11 ~
b1 O"
b1 |
1"
19
#20
b100000000000000000100 @
b100000000000000000100 Q
b100000000000000000100 \
b100000000000000000100 ]
b10000000000010000000000001000 7
b10000000000010000000000001000 h
b10000000000010000000000001000 ."
b100000000000000000100 2
b100000000000000000100 V
b100000000000000000100 Z
b100000000000000000100 e
b100000000000000001011 3
b100000000000000001011 Y
b100000000000000001011 [
0"
09
#21
b11111111 M
b11111111 }
b11111111 0"
b11111111 6"
b11111111 E"
b11111111 G"
b11111111 ?
b11111111 >"
b11111111 D"
b10001110100001010000000000001100 >
b10001110100001010000000000001100 `
b10001110100001010000000000001100 b
#22
b101 N
b101 t
b101 J"
b1100 )
b1100 ("
b1100 -"
b10000000000 <"
b100000000000010 ?"
b101 K"
b1100 X
b1100 *"
b1100 ;
b1100 l
b101 K
b101 $"
b101 H"
b1100 <
b1100 '"
b100000000000000000100 T
b100000000000000000100 _
b11111111 P"
b100 w
b100 O
b100 ~
b10000000000010000000000001000 j
b10000000000010000000000001000 8
b10000000000010000000000001000 ;"
b10000000000010000000000001000 C"
b100000000000000000100 g
b100000000000000000100 B
b100000000000000000100 W
b10001110100001010000000000001100 d
b10001110100001010000000000001100 =
b100000000000000000100 S
b10000000000000000010000 0
b10000000000000000010000 !
b11111111 |
1"
19
#24
b100000000000000000101 @
b100000000000000000101 Q
b100000000000000000101 \
b100000000000000000101 ]
b10000000000010000000000001100 7
b10000000000010000000000001100 h
b10000000000010000000000001100 ."
b100000000000000000101 2
b100000000000000000101 V
b100000000000000000101 Z
b100000000000000000101 e
b100000000000000010000 3
b100000000000000010000 Y
b100000000000000010000 [
0"
09
#25
b10000000000 M
b10000000000 }
b10000000000 0"
b10000000000 6"
b10000000000 E"
b10000000000 G"
b10000000000 ?
b10000000000 >"
b10000000000 D"
b10001110100001100000000000010000 >
b10001110100001100000000000010000 `
b10001110100001100000000000010000 b
#26
b10000000000010000000000000000 G
b10000000000010000000000000000 x
b10000000000010000000000000000 &"
b10000000000010000000000000000 7"
b110 N
b110 t
b110 J"
b10000 )
b10000 ("
b10000 -"
b10000000000010000000000000000 9"
b0 :"
b110 K"
b10000 X
b10000 *"
b1100100 <"
b100000000000011 ?"
08"
b100000000000000000101 T
b100000000000000000101 _
b10000 ;
b10000 l
b110 K
b110 $"
b110 H"
b10000 <
b10000 '"
b100000000000000000101 S
b10000000000000000010100 0
b10000000000000000010100 !
b10001110100001100000000000010000 d
b10001110100001100000000000010000 =
b100000000000000000101 g
b100000000000000000101 B
b100000000000000000101 W
b10000000000010000000000001100 j
b10000000000010000000000001100 8
b10000000000010000000000001100 ;"
b10000000000010000000000001100 C"
b101 w
b101 O
b101 ~
b10000000000 Q"
b10000000000 |
1"
19
#28
b100000000000000000110 @
b100000000000000000110 Q
b100000000000000000110 \
b100000000000000000110 ]
b10000000000010000000000010000 7
b10000000000010000000000010000 h
b10000000000010000000000010000 ."
b100000000000000000110 2
b100000000000000000110 V
b100000000000000000110 Z
b100000000000000000110 e
b100000000000000010101 3
b100000000000000010101 Y
b100000000000000010101 [
0"
09
#29
b1100100 M
b1100100 }
b1100100 0"
b1100100 6"
b1100100 E"
b1100100 G"
b1100100 ?
b1100100 >"
b1100100 D"
b10101110100001100000000000000100 >
b10101110100001100000000000000100 `
b10101110100001100000000000000100 b
#30
b1100100 G
b1100100 x
b1100100 &"
b1100100 7"
b0 9"
b1100100 :"
b100 )
b100 ("
b100 -"
18"
b11001000 <"
b100000000000100 ?"
b100 X
b100 *"
b100 ;
b100 l
b101011 A
b101011 o
b100 <
b100 '"
b100000000000000000110 T
b100000000000000000110 _
b1100100 R"
b110 w
b110 O
b110 ~
b10000000000010000000000010000 j
b10000000000010000000000010000 8
b10000000000010000000000010000 ;"
b10000000000010000000000010000 C"
b100000000000000000110 g
b100000000000000000110 B
b100000000000000000110 W
b10101110100001100000000000000100 d
b10101110100001100000000000000100 =
b100000000000000000110 S
b10000000000000000011000 0
b10000000000000000011000 !
b1100100 |
1"
19
#32
1r
1v
1z
1L
0R
0c
0f
b0 N
b0 t
b0 J"
05
b0 K"
b100000000000000000111 @
b100000000000000000111 Q
b100000000000000000111 \
14
b100000000000000000111 ]
b10000000000010000000000000100 7
b10000000000010000000000000100 h
b10000000000010000000000000100 ."
0,
0*
b100 p
1.
b100000000000000000111 2
b100000000000000000111 V
b100000000000000000111 Z
b100000000000000000111 e
b100000000000000001010 3
b100000000000000001010 Y
b100000000000000001010 [
0"
09
#33
b11001000 G
b11001000 x
b11001000 &"
b11001000 7"
b11001000 :"
b11001000 M
b11001000 }
b11001000 0"
b11001000 6"
b11001000 E"
b11001000 G"
b11001000 ?
b11001000 >"
b11001000 D"
b10001110100001110000000000000100 >
b10001110100001110000000000000100 `
b10001110100001110000000000000100 b
#34
0r
0v
0z
b10000000000010000000000000000 G
b10000000000010000000000000000 x
b10000000000010000000000000000 &"
b10000000000010000000000000000 7"
b11111111 <"
b100000000000001 ?"
b10000000000010000000000000100 M
b10000000000010000000000000100 }
b10000000000010000000000000100 0"
b10000000000010000000000000100 6"
b10000000000010000000000000100 E"
b0 G"
0L
1R
1c
1f
b10000000000010000000000000000 9"
b0 :"
b10000000000010000000000000100 F"
0-
06
0+
08"
b10000000000010000000000000100 j
b10000000000010000000000000100 8
b10000000000010000000000000100 ;"
b10000000000010000000000000100 C"
b0 s
b0 w
b0 O
b0 ~
b0 {
b0 H
b0 ="
b11001000 S"
b11001000 |
1"
19
#35
b11001000 G
b11001000 x
b11001000 &"
b11001000 7"
b11001000 9"
b10000000000010000000000000100 |
b11001000 F
b11001000 #"
b11001000 5"
#36
0"
09
#37
b0 ?
b0 >"
b0 D"
b0 @"
#38
1/
b100011 A
b100011 o
b111 K
b111 $"
b111 H"
b100000000000000000111 T
b100000000000000000111 _
b11001000 {
b11001000 H
b11001000 ="
b100 s
b100000000000000000111 g
b100000000000000000111 B
b100000000000000000111 W
b10001110100001110000000000000100 d
b10001110100001110000000000000100 =
b100000000000000000111 S
b10000000000000000011100 0
b10000000000000000011100 !
1"
19
#39
b10000000000010000000000000000 G
b10000000000010000000000000000 x
b10000000000010000000000000000 &"
b10000000000010000000000000000 7"
b10000000000010000000000000000 9"
b10000000000010000000000000000 F
b10000000000010000000000000000 #"
b10000000000010000000000000000 5"
#40
b111 N
b111 t
b111 J"
15
b111 K"
b100000000000000001000 @
b100000000000000001000 Q
b100000000000000001000 \
04
b100000000000000001000 ]
1,
1*
b1011 p
0.
b100000000000000001000 2
b100000000000000001000 V
b100000000000000001000 Z
b100000000000000001000 e
b100000000000000001011 3
b100000000000000001011 Y
b100000000000000001011 [
0"
09
#41
b101001010100000000100000 >
b101001010100000000100000 `
b101001010100000000100000 b
b11001000 @"
#42
b101 N
b101 t
b101 J"
b100000000100000 )
b100000000100000 ("
b100000000100000 -"
b0 M
b0 }
b0 0"
b0 6"
b0 E"
b101 K"
b100000000100000 X
b100000000100000 *"
b0 F"
b100000000000000001000 T
b100000000000000001000 _
b100000 ;
b100000 l
1n
b0 A
b0 o
b1000 C
b1000 I"
b101 K
b101 $"
b101 H"
b101 J
b101 ""
b100000000100000 <
b100000000100000 '"
1-
16
0/
1+
b100000000000000001000 S
b10000000000000000100000 0
b10000000000000000100000 !
b101001010100000000100000 d
b101001010100000000100000 =
b100000000000000001000 g
b100000000000000001000 B
b100000000000000001000 W
b1011 s
b111 w
b111 O
b111 ~
b10000000000010000000000000000 {
b10000000000010000000000000000 H
b10000000000010000000000000000 ="
b11001000 <"
1"
19
#43
b1100100 G
b1100100 x
b1100100 &"
b1100100 7"
b1100100 E
b1100100 ,"
b1100100 1"
b1100100 9"
b1100100 3"
b0 |
b1100100 F
b1100100 #"
b1100100 5"
b1100100 D
b1100100 !"
b1100100 /"
#44
b1000 N
b1000 t
b1000 J"
b1100100 )
b1100100 ("
b1100100 -"
b100000000000000001001 @
b100000000000000001001 Q
b100000000000000001001 \
b0 K"
b1000 L"
b1100100 )"
b0 *"
b100000000000000001001 ]
14
0'
b100000000000000001001 2
b100000000000000001001 V
b100000000000000001001 Z
b100000000000000001001 e
0,
b10 p
0*
b100000100000000101000 3
b100000100000000101000 Y
b100000100000000101000 [
0"
09
#45
b11001000 M
b11001000 }
b11001000 0"
b11001000 6"
b11001000 E"
b11001000 G"
1P
b100000110100100000100010 >
b100000110100100000100010 `
b100000110100100000100010 b
b11001000 ?
b11001000 >"
b11001000 D"
b10000000000010000000000000000 @"
#46
b1001 N
b1001 t
b1001 J"
b11001000 F"
b0 G"
b11011110101011011011111011101111 <"
b110010 ?"
b1001 L"
b100100000100010 X
0-
0+
0A"
b100010 ;
b100010 l
b1001 C
b1001 I"
b11 K
b11 $"
b11 H"
b100 J
b100 ""
b100100000100010 <
b100100000100010 '"
b100000000000000001001 T
b100000000000000001001 _
b11001000 T"
b1100100 {
b1100100 H
b1100100 ="
b1000 w
b1000 O
b1000 ~
b10 s
b11001000 j
b11001000 8
b11001000 ;"
b11001000 C"
b100000000000000001001 g
b100000000000000001001 B
b100000000000000001001 W
b100000110100100000100010 d
b100000110100100000100010 =
b100000000000000001001 S
b10000000000000000100100 0
b10000000000000000100100 !
b11001000 |
b11001000 7
b11001000 h
b11001000 ."
1"
19
#47
b11111111 )
b11111111 ("
b11111111 -"
b11111111 )"
b11111111 G
b11111111 x
b11111111 &"
b11111111 7"
b10000000000 E
b10000000000 ,"
b10000000000 1"
b11111111 9"
b10000000000 3"
b11111111 F
b11111111 #"
b11111111 5"
b10000000000 D
b10000000000 !"
b10000000000 /"
#48
b100000000000000001010 @
b100000000000000001010 Q
b100000000000000001010 \
b100000000000000001010 ]
0P
b1 &
b1 k
b1 +"
b100000000000000001010 2
b100000000000000001010 V
b100000000000000001010 Z
b100000000000000001010 e
b100000100100000101011 3
b100000100100000101011 Y
b100000100100000101011 [
0"
09
#49
b0 ?
b0 >"
b0 D"
b1000001010101000000100000 >
b1000001010101000000100000 `
b1000001010101000000100000 b
b1100100 @"
#50
b1010 N
b1010 t
b1010 J"
b1010 L"
b101000000100000 X
b11000000 ?"
b1100000001 M
b1100000001 }
b1100000001 0"
b1100000001 6"
b1100000001 E"
b100000000000000001010 T
b100000000000000001010 _
b100000 ;
b100000 l
b1010 C
b1010 I"
b101 K
b101 $"
b101 H"
b1000 J
b1000 ""
b101000000100000 <
b101000000100000 '"
b1100000001 F"
b100000000000000001010 S
b10000000000000000101000 0
b10000000000000000101000 !
b1000001010101000000100000 d
b1000001010101000000100000 =
b100000000000000001010 g
b100000000000000001010 B
b100000000000000001010 W
b1100000001 j
b1100000001 8
b1100000001 ;"
b1100000001 C"
b1001 w
b1001 O
b1001 ~
b11111111 {
b11111111 H
b11111111 ="
b11001000 U"
b1100000001 7
b1100000001 h
b1100000001 ."
1"
19
#51
b1100100 )
b1100100 ("
b1100100 -"
b1100100 )"
b1100100 G
b1100100 x
b1100100 &"
b1100100 7"
b11001000 E
b11001000 ,"
b11001000 1"
b1100100 9"
b11001000 3"
b1100000001 |
b1100100 F
b1100100 #"
b1100100 5"
b11001000 D
b11001000 !"
b11001000 /"
